(['/Users/jaxonkneipp/Documents/git_projects/major_project/project/ide/py/translation.py'],
 ['/Users/jaxonkneipp/Documents/git_projects/major_project/project/ide/py',
  '/Users/jaxonkneipp/Documents/git_projects/major_project/project/ide/py'],
 ['codecs'],
 [],
 [],
 [],
 False,
 False,
 '3.6.5 (default, Apr 25 2018, 14:23:58) \n'
 '[GCC 4.2.1 Compatible Apple LLVM 9.1.0 (clang-902.0.39.1)]',
 [('translation',
   '/Users/jaxonkneipp/Documents/git_projects/major_project/project/ide/py/translation.py',
   'PYSOURCE')],
 [('posixpath',
   '/usr/local/Cellar/python/3.6.5/Frameworks/Python.framework/Versions/3.6/lib/python3.6/posixpath.py',
   'PYMODULE'),
  ('_strptime',
   '/usr/local/Cellar/python/3.6.5/Frameworks/Python.framework/Versions/3.6/lib/python3.6/_strptime.py',
   'PYMODULE'),
  ('datetime',
   '/usr/local/Cellar/python/3.6.5/Frameworks/Python.framework/Versions/3.6/lib/python3.6/datetime.py',
   'PYMODULE'),
  ('stringprep',
   '/usr/local/Cellar/python/3.6.5/Frameworks/Python.framework/Versions/3.6/lib/python3.6/stringprep.py',
   'PYMODULE'),
  ('__future__',
   '/usr/local/Cellar/python/3.6.5/Frameworks/Python.framework/Versions/3.6/lib/python3.6/__future__.py',
   'PYMODULE'),
  ('difflib',
   '/usr/local/Cellar/python/3.6.5/Frameworks/Python.framework/Versions/3.6/lib/python3.6/difflib.py',
   'PYMODULE'),
  ('ast',
   '/usr/local/Cellar/python/3.6.5/Frameworks/Python.framework/Versions/3.6/lib/python3.6/ast.py',
   'PYMODULE'),
  ('inspect',
   '/usr/local/Cellar/python/3.6.5/Frameworks/Python.framework/Versions/3.6/lib/python3.6/inspect.py',
   'PYMODULE'),
  ('genericpath',
   '/usr/local/Cellar/python/3.6.5/Frameworks/Python.framework/Versions/3.6/lib/python3.6/genericpath.py',
   'PYMODULE'),
  ('ntpath',
   '/usr/local/Cellar/python/3.6.5/Frameworks/Python.framework/Versions/3.6/lib/python3.6/ntpath.py',
   'PYMODULE'),
  ('os',
   '/usr/local/Cellar/python/3.6.5/Frameworks/Python.framework/Versions/3.6/lib/python3.6/os.py',
   'PYMODULE'),
  ('cmd',
   '/usr/local/Cellar/python/3.6.5/Frameworks/Python.framework/Versions/3.6/lib/python3.6/cmd.py',
   'PYMODULE'),
  ('bdb',
   '/usr/local/Cellar/python/3.6.5/Frameworks/Python.framework/Versions/3.6/lib/python3.6/bdb.py',
   'PYMODULE'),
  ('opcode',
   '/usr/local/Cellar/python/3.6.5/Frameworks/Python.framework/Versions/3.6/lib/python3.6/opcode.py',
   'PYMODULE'),
  ('dis',
   '/usr/local/Cellar/python/3.6.5/Frameworks/Python.framework/Versions/3.6/lib/python3.6/dis.py',
   'PYMODULE'),
  ('codeop',
   '/usr/local/Cellar/python/3.6.5/Frameworks/Python.framework/Versions/3.6/lib/python3.6/codeop.py',
   'PYMODULE'),
  ('code',
   '/usr/local/Cellar/python/3.6.5/Frameworks/Python.framework/Versions/3.6/lib/python3.6/code.py',
   'PYMODULE'),
  ('glob',
   '/usr/local/Cellar/python/3.6.5/Frameworks/Python.framework/Versions/3.6/lib/python3.6/glob.py',
   'PYMODULE'),
  ('shlex',
   '/usr/local/Cellar/python/3.6.5/Frameworks/Python.framework/Versions/3.6/lib/python3.6/shlex.py',
   'PYMODULE'),
  ('importlib._bootstrap',
   '/usr/local/Cellar/python/3.6.5/Frameworks/Python.framework/Versions/3.6/lib/python3.6/importlib/_bootstrap.py',
   'PYMODULE'),
  ('importlib._bootstrap_external',
   '/usr/local/Cellar/python/3.6.5/Frameworks/Python.framework/Versions/3.6/lib/python3.6/importlib/_bootstrap_external.py',
   'PYMODULE'),
  ('importlib.machinery',
   '/usr/local/Cellar/python/3.6.5/Frameworks/Python.framework/Versions/3.6/lib/python3.6/importlib/machinery.py',
   'PYMODULE'),
  ('importlib.util',
   '/usr/local/Cellar/python/3.6.5/Frameworks/Python.framework/Versions/3.6/lib/python3.6/importlib/util.py',
   'PYMODULE'),
  ('importlib.abc',
   '/usr/local/Cellar/python/3.6.5/Frameworks/Python.framework/Versions/3.6/lib/python3.6/importlib/abc.py',
   'PYMODULE'),
  ('importlib',
   '/usr/local/Cellar/python/3.6.5/Frameworks/Python.framework/Versions/3.6/lib/python3.6/importlib/__init__.py',
   'PYMODULE'),
  ('pkgutil',
   '/usr/local/Cellar/python/3.6.5/Frameworks/Python.framework/Versions/3.6/lib/python3.6/pkgutil.py',
   'PYMODULE'),
  ('xml',
   '/usr/local/Cellar/python/3.6.5/Frameworks/Python.framework/Versions/3.6/lib/python3.6/xml/__init__.py',
   'PYMODULE'),
  ('xml.sax.expatreader',
   '/usr/local/Cellar/python/3.6.5/Frameworks/Python.framework/Versions/3.6/lib/python3.6/xml/sax/expatreader.py',
   'PYMODULE'),
  ('xml.sax.saxutils',
   '/usr/local/Cellar/python/3.6.5/Frameworks/Python.framework/Versions/3.6/lib/python3.6/xml/sax/saxutils.py',
   'PYMODULE'),
  ('urllib.request',
   '/usr/local/Cellar/python/3.6.5/Frameworks/Python.framework/Versions/3.6/lib/python3.6/urllib/request.py',
   'PYMODULE'),
  ('getpass',
   '/usr/local/Cellar/python/3.6.5/Frameworks/Python.framework/Versions/3.6/lib/python3.6/getpass.py',
   'PYMODULE'),
  ('nturl2path',
   '/usr/local/Cellar/python/3.6.5/Frameworks/Python.framework/Versions/3.6/lib/python3.6/nturl2path.py',
   'PYMODULE'),
  ('ftplib',
   '/usr/local/Cellar/python/3.6.5/Frameworks/Python.framework/Versions/3.6/lib/python3.6/ftplib.py',
   'PYMODULE'),
  ('netrc',
   '/usr/local/Cellar/python/3.6.5/Frameworks/Python.framework/Versions/3.6/lib/python3.6/netrc.py',
   'PYMODULE'),
  ('http.cookiejar',
   '/usr/local/Cellar/python/3.6.5/Frameworks/Python.framework/Versions/3.6/lib/python3.6/http/cookiejar.py',
   'PYMODULE'),
  ('urllib.response',
   '/usr/local/Cellar/python/3.6.5/Frameworks/Python.framework/Versions/3.6/lib/python3.6/urllib/response.py',
   'PYMODULE'),
  ('urllib.error',
   '/usr/local/Cellar/python/3.6.5/Frameworks/Python.framework/Versions/3.6/lib/python3.6/urllib/error.py',
   'PYMODULE'),
  ('xml.sax',
   '/usr/local/Cellar/python/3.6.5/Frameworks/Python.framework/Versions/3.6/lib/python3.6/xml/sax/__init__.py',
   'PYMODULE'),
  ('xml.sax.handler',
   '/usr/local/Cellar/python/3.6.5/Frameworks/Python.framework/Versions/3.6/lib/python3.6/xml/sax/handler.py',
   'PYMODULE'),
  ('xml.sax._exceptions',
   '/usr/local/Cellar/python/3.6.5/Frameworks/Python.framework/Versions/3.6/lib/python3.6/xml/sax/_exceptions.py',
   'PYMODULE'),
  ('xml.sax.xmlreader',
   '/usr/local/Cellar/python/3.6.5/Frameworks/Python.framework/Versions/3.6/lib/python3.6/xml/sax/xmlreader.py',
   'PYMODULE'),
  ('xml.parsers',
   '/usr/local/Cellar/python/3.6.5/Frameworks/Python.framework/Versions/3.6/lib/python3.6/xml/parsers/__init__.py',
   'PYMODULE'),
  ('xml.parsers.expat',
   '/usr/local/Cellar/python/3.6.5/Frameworks/Python.framework/Versions/3.6/lib/python3.6/xml/parsers/expat.py',
   'PYMODULE'),
  ('plistlib',
   '/usr/local/Cellar/python/3.6.5/Frameworks/Python.framework/Versions/3.6/lib/python3.6/plistlib.py',
   'PYMODULE'),
  ('platform',
   '/usr/local/Cellar/python/3.6.5/Frameworks/Python.framework/Versions/3.6/lib/python3.6/platform.py',
   'PYMODULE'),
  ('token',
   '/usr/local/Cellar/python/3.6.5/Frameworks/Python.framework/Versions/3.6/lib/python3.6/token.py',
   'PYMODULE'),
  ('tokenize',
   '/usr/local/Cellar/python/3.6.5/Frameworks/Python.framework/Versions/3.6/lib/python3.6/tokenize.py',
   'PYMODULE'),
  ('urllib.parse',
   '/usr/local/Cellar/python/3.6.5/Frameworks/Python.framework/Versions/3.6/lib/python3.6/urllib/parse.py',
   'PYMODULE'),
  ('tempfile',
   '/usr/local/Cellar/python/3.6.5/Frameworks/Python.framework/Versions/3.6/lib/python3.6/tempfile.py',
   'PYMODULE'),
  ('subprocess',
   '/usr/local/Cellar/python/3.6.5/Frameworks/Python.framework/Versions/3.6/lib/python3.6/subprocess.py',
   'PYMODULE'),
  ('tty',
   '/usr/local/Cellar/python/3.6.5/Frameworks/Python.framework/Versions/3.6/lib/python3.6/tty.py',
   'PYMODULE'),
  ('pydoc_data',
   '/usr/local/Cellar/python/3.6.5/Frameworks/Python.framework/Versions/3.6/lib/python3.6/pydoc_data/__init__.py',
   'PYMODULE'),
  ('pydoc_data.topics',
   '/usr/local/Cellar/python/3.6.5/Frameworks/Python.framework/Versions/3.6/lib/python3.6/pydoc_data/topics.py',
   'PYMODULE'),
  ('textwrap',
   '/usr/local/Cellar/python/3.6.5/Frameworks/Python.framework/Versions/3.6/lib/python3.6/textwrap.py',
   'PYMODULE'),
  ('html.entities',
   '/usr/local/Cellar/python/3.6.5/Frameworks/Python.framework/Versions/3.6/lib/python3.6/html/entities.py',
   'PYMODULE'),
  ('html',
   '/usr/local/Cellar/python/3.6.5/Frameworks/Python.framework/Versions/3.6/lib/python3.6/html/__init__.py',
   'PYMODULE'),
  ('ipaddress',
   '/usr/local/Cellar/python/3.6.5/Frameworks/Python.framework/Versions/3.6/lib/python3.6/ipaddress.py',
   'PYMODULE'),
  ('ssl',
   '/usr/local/Cellar/python/3.6.5/Frameworks/Python.framework/Versions/3.6/lib/python3.6/ssl.py',
   'PYMODULE'),
  ('http.client',
   '/usr/local/Cellar/python/3.6.5/Frameworks/Python.framework/Versions/3.6/lib/python3.6/http/client.py',
   'PYMODULE'),
  ('mimetypes',
   '/usr/local/Cellar/python/3.6.5/Frameworks/Python.framework/Versions/3.6/lib/python3.6/mimetypes.py',
   'PYMODULE'),
  ('socketserver',
   '/usr/local/Cellar/python/3.6.5/Frameworks/Python.framework/Versions/3.6/lib/python3.6/socketserver.py',
   'PYMODULE'),
  ('http',
   '/usr/local/Cellar/python/3.6.5/Frameworks/Python.framework/Versions/3.6/lib/python3.6/http/__init__.py',
   'PYMODULE'),
  ('http.server',
   '/usr/local/Cellar/python/3.6.5/Frameworks/Python.framework/Versions/3.6/lib/python3.6/http/server.py',
   'PYMODULE'),
  ('optparse',
   '/usr/local/Cellar/python/3.6.5/Frameworks/Python.framework/Versions/3.6/lib/python3.6/optparse.py',
   'PYMODULE'),
  ('uu',
   '/usr/local/Cellar/python/3.6.5/Frameworks/Python.framework/Versions/3.6/lib/python3.6/uu.py',
   'PYMODULE'),
  ('quopri',
   '/usr/local/Cellar/python/3.6.5/Frameworks/Python.framework/Versions/3.6/lib/python3.6/quopri.py',
   'PYMODULE'),
  ('email.feedparser',
   '/usr/local/Cellar/python/3.6.5/Frameworks/Python.framework/Versions/3.6/lib/python3.6/email/feedparser.py',
   'PYMODULE'),
  ('email.parser',
   '/usr/local/Cellar/python/3.6.5/Frameworks/Python.framework/Versions/3.6/lib/python3.6/email/parser.py',
   'PYMODULE'),
  ('email',
   '/usr/local/Cellar/python/3.6.5/Frameworks/Python.framework/Versions/3.6/lib/python3.6/email/__init__.py',
   'PYMODULE'),
  ('calendar',
   '/usr/local/Cellar/python/3.6.5/Frameworks/Python.framework/Versions/3.6/lib/python3.6/calendar.py',
   'PYMODULE'),
  ('email._parseaddr',
   '/usr/local/Cellar/python/3.6.5/Frameworks/Python.framework/Versions/3.6/lib/python3.6/email/_parseaddr.py',
   'PYMODULE'),
  ('email.utils',
   '/usr/local/Cellar/python/3.6.5/Frameworks/Python.framework/Versions/3.6/lib/python3.6/email/utils.py',
   'PYMODULE'),
  ('email.errors',
   '/usr/local/Cellar/python/3.6.5/Frameworks/Python.framework/Versions/3.6/lib/python3.6/email/errors.py',
   'PYMODULE'),
  ('email.header',
   '/usr/local/Cellar/python/3.6.5/Frameworks/Python.framework/Versions/3.6/lib/python3.6/email/header.py',
   'PYMODULE'),
  ('email._policybase',
   '/usr/local/Cellar/python/3.6.5/Frameworks/Python.framework/Versions/3.6/lib/python3.6/email/_policybase.py',
   'PYMODULE'),
  ('email.base64mime',
   '/usr/local/Cellar/python/3.6.5/Frameworks/Python.framework/Versions/3.6/lib/python3.6/email/base64mime.py',
   'PYMODULE'),
  ('email.encoders',
   '/usr/local/Cellar/python/3.6.5/Frameworks/Python.framework/Versions/3.6/lib/python3.6/email/encoders.py',
   'PYMODULE'),
  ('email.charset',
   '/usr/local/Cellar/python/3.6.5/Frameworks/Python.framework/Versions/3.6/lib/python3.6/email/charset.py',
   'PYMODULE'),
  ('base64',
   '/usr/local/Cellar/python/3.6.5/Frameworks/Python.framework/Versions/3.6/lib/python3.6/base64.py',
   'PYMODULE'),
  ('email._encoded_words',
   '/usr/local/Cellar/python/3.6.5/Frameworks/Python.framework/Versions/3.6/lib/python3.6/email/_encoded_words.py',
   'PYMODULE'),
  ('hashlib',
   '/usr/local/Cellar/python/3.6.5/Frameworks/Python.framework/Versions/3.6/lib/python3.6/hashlib.py',
   'PYMODULE'),
  ('bisect',
   '/usr/local/Cellar/python/3.6.5/Frameworks/Python.framework/Versions/3.6/lib/python3.6/bisect.py',
   'PYMODULE'),
  ('random',
   '/usr/local/Cellar/python/3.6.5/Frameworks/Python.framework/Versions/3.6/lib/python3.6/random.py',
   'PYMODULE'),
  ('email.generator',
   '/usr/local/Cellar/python/3.6.5/Frameworks/Python.framework/Versions/3.6/lib/python3.6/email/generator.py',
   'PYMODULE'),
  ('email.iterators',
   '/usr/local/Cellar/python/3.6.5/Frameworks/Python.framework/Versions/3.6/lib/python3.6/email/iterators.py',
   'PYMODULE'),
  ('urllib',
   '/usr/local/Cellar/python/3.6.5/Frameworks/Python.framework/Versions/3.6/lib/python3.6/urllib/__init__.py',
   'PYMODULE'),
  ('email._header_value_parser',
   '/usr/local/Cellar/python/3.6.5/Frameworks/Python.framework/Versions/3.6/lib/python3.6/email/_header_value_parser.py',
   'PYMODULE'),
  ('email.headerregistry',
   '/usr/local/Cellar/python/3.6.5/Frameworks/Python.framework/Versions/3.6/lib/python3.6/email/headerregistry.py',
   'PYMODULE'),
  ('email.quoprimime',
   '/usr/local/Cellar/python/3.6.5/Frameworks/Python.framework/Versions/3.6/lib/python3.6/email/quoprimime.py',
   'PYMODULE'),
  ('email.contentmanager',
   '/usr/local/Cellar/python/3.6.5/Frameworks/Python.framework/Versions/3.6/lib/python3.6/email/contentmanager.py',
   'PYMODULE'),
  ('email.policy',
   '/usr/local/Cellar/python/3.6.5/Frameworks/Python.framework/Versions/3.6/lib/python3.6/email/policy.py',
   'PYMODULE'),
  ('email.message',
   '/usr/local/Cellar/python/3.6.5/Frameworks/Python.framework/Versions/3.6/lib/python3.6/email/message.py',
   'PYMODULE'),
  ('stat',
   '/usr/local/Cellar/python/3.6.5/Frameworks/Python.framework/Versions/3.6/lib/python3.6/stat.py',
   'PYMODULE'),
  ('bz2',
   '/usr/local/Cellar/python/3.6.5/Frameworks/Python.framework/Versions/3.6/lib/python3.6/bz2.py',
   'PYMODULE'),
  ('lzma',
   '/usr/local/Cellar/python/3.6.5/Frameworks/Python.framework/Versions/3.6/lib/python3.6/lzma.py',
   'PYMODULE'),
  ('_compression',
   '/usr/local/Cellar/python/3.6.5/Frameworks/Python.framework/Versions/3.6/lib/python3.6/_compression.py',
   'PYMODULE'),
  ('gzip',
   '/usr/local/Cellar/python/3.6.5/Frameworks/Python.framework/Versions/3.6/lib/python3.6/gzip.py',
   'PYMODULE'),
  ('tarfile',
   '/usr/local/Cellar/python/3.6.5/Frameworks/Python.framework/Versions/3.6/lib/python3.6/tarfile.py',
   'PYMODULE'),
  ('_dummy_thread',
   '/usr/local/Cellar/python/3.6.5/Frameworks/Python.framework/Versions/3.6/lib/python3.6/_dummy_thread.py',
   'PYMODULE'),
  ('dummy_threading',
   '/usr/local/Cellar/python/3.6.5/Frameworks/Python.framework/Versions/3.6/lib/python3.6/dummy_threading.py',
   'PYMODULE'),
  ('py_compile',
   '/usr/local/Cellar/python/3.6.5/Frameworks/Python.framework/Versions/3.6/lib/python3.6/py_compile.py',
   'PYMODULE'),
  ('zipfile',
   '/usr/local/Cellar/python/3.6.5/Frameworks/Python.framework/Versions/3.6/lib/python3.6/zipfile.py',
   'PYMODULE'),
  ('shutil',
   '/usr/local/Cellar/python/3.6.5/Frameworks/Python.framework/Versions/3.6/lib/python3.6/shutil.py',
   'PYMODULE'),
  ('selectors',
   '/usr/local/Cellar/python/3.6.5/Frameworks/Python.framework/Versions/3.6/lib/python3.6/selectors.py',
   'PYMODULE'),
  ('socket',
   '/usr/local/Cellar/python/3.6.5/Frameworks/Python.framework/Versions/3.6/lib/python3.6/socket.py',
   'PYMODULE'),
  ('webbrowser',
   '/usr/local/Cellar/python/3.6.5/Frameworks/Python.framework/Versions/3.6/lib/python3.6/webbrowser.py',
   'PYMODULE'),
  ('pydoc',
   '/usr/local/Cellar/python/3.6.5/Frameworks/Python.framework/Versions/3.6/lib/python3.6/pydoc.py',
   'PYMODULE'),
  ('copy',
   '/usr/local/Cellar/python/3.6.5/Frameworks/Python.framework/Versions/3.6/lib/python3.6/copy.py',
   'PYMODULE'),
  ('gettext',
   '/usr/local/Cellar/python/3.6.5/Frameworks/Python.framework/Versions/3.6/lib/python3.6/gettext.py',
   'PYMODULE'),
  ('getopt',
   '/usr/local/Cellar/python/3.6.5/Frameworks/Python.framework/Versions/3.6/lib/python3.6/getopt.py',
   'PYMODULE'),
  ('pdb',
   '/usr/local/Cellar/python/3.6.5/Frameworks/Python.framework/Versions/3.6/lib/python3.6/pdb.py',
   'PYMODULE'),
  ('unittest.util',
   '/usr/local/Cellar/python/3.6.5/Frameworks/Python.framework/Versions/3.6/lib/python3.6/unittest/util.py',
   'PYMODULE'),
  ('unittest.result',
   '/usr/local/Cellar/python/3.6.5/Frameworks/Python.framework/Versions/3.6/lib/python3.6/unittest/result.py',
   'PYMODULE'),
  ('string',
   '/usr/local/Cellar/python/3.6.5/Frameworks/Python.framework/Versions/3.6/lib/python3.6/string.py',
   'PYMODULE'),
  ('_threading_local',
   '/usr/local/Cellar/python/3.6.5/Frameworks/Python.framework/Versions/3.6/lib/python3.6/_threading_local.py',
   'PYMODULE'),
  ('threading',
   '/usr/local/Cellar/python/3.6.5/Frameworks/Python.framework/Versions/3.6/lib/python3.6/threading.py',
   'PYMODULE'),
  ('logging',
   '/usr/local/Cellar/python/3.6.5/Frameworks/Python.framework/Versions/3.6/lib/python3.6/logging/__init__.py',
   'PYMODULE'),
  ('contextlib',
   '/usr/local/Cellar/python/3.6.5/Frameworks/Python.framework/Versions/3.6/lib/python3.6/contextlib.py',
   'PYMODULE'),
  ('unittest.case',
   '/usr/local/Cellar/python/3.6.5/Frameworks/Python.framework/Versions/3.6/lib/python3.6/unittest/case.py',
   'PYMODULE'),
  ('unittest.suite',
   '/usr/local/Cellar/python/3.6.5/Frameworks/Python.framework/Versions/3.6/lib/python3.6/unittest/suite.py',
   'PYMODULE'),
  ('unittest.loader',
   '/usr/local/Cellar/python/3.6.5/Frameworks/Python.framework/Versions/3.6/lib/python3.6/unittest/loader.py',
   'PYMODULE'),
  ('fnmatch',
   '/usr/local/Cellar/python/3.6.5/Frameworks/Python.framework/Versions/3.6/lib/python3.6/fnmatch.py',
   'PYMODULE'),
  ('struct',
   '/usr/local/Cellar/python/3.6.5/Frameworks/Python.framework/Versions/3.6/lib/python3.6/struct.py',
   'PYMODULE'),
  ('_compat_pickle',
   '/usr/local/Cellar/python/3.6.5/Frameworks/Python.framework/Versions/3.6/lib/python3.6/_compat_pickle.py',
   'PYMODULE'),
  ('pprint',
   '/usr/local/Cellar/python/3.6.5/Frameworks/Python.framework/Versions/3.6/lib/python3.6/pprint.py',
   'PYMODULE'),
  ('pickle',
   '/usr/local/Cellar/python/3.6.5/Frameworks/Python.framework/Versions/3.6/lib/python3.6/pickle.py',
   'PYMODULE'),
  ('tracemalloc',
   '/usr/local/Cellar/python/3.6.5/Frameworks/Python.framework/Versions/3.6/lib/python3.6/tracemalloc.py',
   'PYMODULE'),
  ('warnings',
   '/usr/local/Cellar/python/3.6.5/Frameworks/Python.framework/Versions/3.6/lib/python3.6/warnings.py',
   'PYMODULE'),
  ('unittest.runner',
   '/usr/local/Cellar/python/3.6.5/Frameworks/Python.framework/Versions/3.6/lib/python3.6/unittest/runner.py',
   'PYMODULE'),
  ('unittest.main',
   '/usr/local/Cellar/python/3.6.5/Frameworks/Python.framework/Versions/3.6/lib/python3.6/unittest/main.py',
   'PYMODULE'),
  ('enum',
   '/usr/local/Cellar/python/3.6.5/Frameworks/Python.framework/Versions/3.6/lib/python3.6/enum.py',
   'PYMODULE'),
  ('signal',
   '/usr/local/Cellar/python/3.6.5/Frameworks/Python.framework/Versions/3.6/lib/python3.6/signal.py',
   'PYMODULE'),
  ('unittest.signals',
   '/usr/local/Cellar/python/3.6.5/Frameworks/Python.framework/Versions/3.6/lib/python3.6/unittest/signals.py',
   'PYMODULE'),
  ('unittest',
   '/usr/local/Cellar/python/3.6.5/Frameworks/Python.framework/Versions/3.6/lib/python3.6/unittest/__init__.py',
   'PYMODULE'),
  ('doctest',
   '/usr/local/Cellar/python/3.6.5/Frameworks/Python.framework/Versions/3.6/lib/python3.6/doctest.py',
   'PYMODULE'),
  ('argparse',
   '/usr/local/Cellar/python/3.6.5/Frameworks/Python.framework/Versions/3.6/lib/python3.6/argparse.py',
   'PYMODULE'),
  ('speech_recognition',
   '/usr/local/lib/python3.6/site-packages/speech_recognition/__init__.py',
   'PYMODULE'),
  ('pocketsphinx.pocketsphinx',
   '/usr/local/lib/python3.6/site-packages/pocketsphinx/pocketsphinx.py',
   'PYMODULE'),
  ('sphinxbase',
   '/usr/local/lib/python3.6/site-packages/sphinxbase/__init__.py',
   'PYMODULE'),
  ('sphinxbase.sphinxbase',
   '/usr/local/lib/python3.6/site-packages/sphinxbase/sphinxbase.py',
   'PYMODULE'),
  ('sphinxbase.ad_openal',
   '/usr/local/lib/python3.6/site-packages/sphinxbase/ad_openal.py',
   'PYMODULE'),
  ('imp',
   '/usr/local/Cellar/python/3.6.5/Frameworks/Python.framework/Versions/3.6/lib/python3.6/imp.py',
   'PYMODULE'),
  ('pocketsphinx',
   '/usr/local/lib/python3.6/site-packages/pocketsphinx/__init__.py',
   'PYMODULE'),
  ('distutils.version',
   '/usr/local/Cellar/python/3.6.5/Frameworks/Python.framework/Versions/3.6/lib/python3.6/distutils/version.py',
   'PYMODULE'),
  ('distutils',
   '/usr/local/Cellar/python/3.6.5/Frameworks/Python.framework/Versions/3.6/lib/python3.6/distutils/__init__.py',
   'PYMODULE'),
  ('pyaudio', '/usr/local/lib/python3.6/site-packages/pyaudio.py', 'PYMODULE'),
  ('uuid',
   '/usr/local/Cellar/python/3.6.5/Frameworks/Python.framework/Versions/3.6/lib/python3.6/uuid.py',
   'PYMODULE'),
  ('ctypes.util',
   '/usr/local/Cellar/python/3.6.5/Frameworks/Python.framework/Versions/3.6/lib/python3.6/ctypes/util.py',
   'PYMODULE'),
  ('ctypes.macholib.dyld',
   '/usr/local/Cellar/python/3.6.5/Frameworks/Python.framework/Versions/3.6/lib/python3.6/ctypes/macholib/dyld.py',
   'PYMODULE'),
  ('ctypes.macholib',
   '/usr/local/Cellar/python/3.6.5/Frameworks/Python.framework/Versions/3.6/lib/python3.6/ctypes/macholib/__init__.py',
   'PYMODULE'),
  ('ctypes.macholib.dylib',
   '/usr/local/Cellar/python/3.6.5/Frameworks/Python.framework/Versions/3.6/lib/python3.6/ctypes/macholib/dylib.py',
   'PYMODULE'),
  ('ctypes.macholib.framework',
   '/usr/local/Cellar/python/3.6.5/Frameworks/Python.framework/Versions/3.6/lib/python3.6/ctypes/macholib/framework.py',
   'PYMODULE'),
  ('ctypes',
   '/usr/local/Cellar/python/3.6.5/Frameworks/Python.framework/Versions/3.6/lib/python3.6/ctypes/__init__.py',
   'PYMODULE'),
  ('ctypes._endian',
   '/usr/local/Cellar/python/3.6.5/Frameworks/Python.framework/Versions/3.6/lib/python3.6/ctypes/_endian.py',
   'PYMODULE'),
  ('hmac',
   '/usr/local/Cellar/python/3.6.5/Frameworks/Python.framework/Versions/3.6/lib/python3.6/hmac.py',
   'PYMODULE'),
  ('json',
   '/usr/local/Cellar/python/3.6.5/Frameworks/Python.framework/Versions/3.6/lib/python3.6/json/__init__.py',
   'PYMODULE'),
  ('json.encoder',
   '/usr/local/Cellar/python/3.6.5/Frameworks/Python.framework/Versions/3.6/lib/python3.6/json/encoder.py',
   'PYMODULE'),
  ('json.decoder',
   '/usr/local/Cellar/python/3.6.5/Frameworks/Python.framework/Versions/3.6/lib/python3.6/json/decoder.py',
   'PYMODULE'),
  ('json.scanner',
   '/usr/local/Cellar/python/3.6.5/Frameworks/Python.framework/Versions/3.6/lib/python3.6/json/scanner.py',
   'PYMODULE'),
  ('aifc',
   '/usr/local/Cellar/python/3.6.5/Frameworks/Python.framework/Versions/3.6/lib/python3.6/aifc.py',
   'PYMODULE'),
  ('chunk',
   '/usr/local/Cellar/python/3.6.5/Frameworks/Python.framework/Versions/3.6/lib/python3.6/chunk.py',
   'PYMODULE'),
  ('wave',
   '/usr/local/Cellar/python/3.6.5/Frameworks/Python.framework/Versions/3.6/lib/python3.6/wave.py',
   'PYMODULE')],
 [('Python',
   '/usr/local/Cellar/python/3.6.5/Frameworks/Python.framework/Versions/3.6/Python',
   'BINARY'),
  ('resource',
   '/usr/local/Cellar/python/3.6.5/Frameworks/Python.framework/Versions/3.6/lib/python3.6/lib-dynload/resource.cpython-36m-darwin.so',
   'EXTENSION'),
  ('_pickle',
   '/usr/local/Cellar/python/3.6.5/Frameworks/Python.framework/Versions/3.6/lib/python3.6/lib-dynload/_pickle.cpython-36m-darwin.so',
   'EXTENSION'),
  ('_datetime',
   '/usr/local/Cellar/python/3.6.5/Frameworks/Python.framework/Versions/3.6/lib/python3.6/lib-dynload/_datetime.cpython-36m-darwin.so',
   'EXTENSION'),
  ('_posixsubprocess',
   '/usr/local/Cellar/python/3.6.5/Frameworks/Python.framework/Versions/3.6/lib/python3.6/lib-dynload/_posixsubprocess.cpython-36m-darwin.so',
   'EXTENSION'),
  ('_ssl',
   '/usr/local/Cellar/python/3.6.5/Frameworks/Python.framework/Versions/3.6/lib/python3.6/lib-dynload/_ssl.cpython-36m-darwin.so',
   'EXTENSION'),
  ('_codecs_cn',
   '/usr/local/Cellar/python/3.6.5/Frameworks/Python.framework/Versions/3.6/lib/python3.6/lib-dynload/_codecs_cn.cpython-36m-darwin.so',
   'EXTENSION'),
  ('_codecs_tw',
   '/usr/local/Cellar/python/3.6.5/Frameworks/Python.framework/Versions/3.6/lib/python3.6/lib-dynload/_codecs_tw.cpython-36m-darwin.so',
   'EXTENSION'),
  ('_codecs_hk',
   '/usr/local/Cellar/python/3.6.5/Frameworks/Python.framework/Versions/3.6/lib/python3.6/lib-dynload/_codecs_hk.cpython-36m-darwin.so',
   'EXTENSION'),
  ('_codecs_jp',
   '/usr/local/Cellar/python/3.6.5/Frameworks/Python.framework/Versions/3.6/lib/python3.6/lib-dynload/_codecs_jp.cpython-36m-darwin.so',
   'EXTENSION'),
  ('_codecs_iso2022',
   '/usr/local/Cellar/python/3.6.5/Frameworks/Python.framework/Versions/3.6/lib/python3.6/lib-dynload/_codecs_iso2022.cpython-36m-darwin.so',
   'EXTENSION'),
  ('unicodedata',
   '/usr/local/Cellar/python/3.6.5/Frameworks/Python.framework/Versions/3.6/lib/python3.6/lib-dynload/unicodedata.cpython-36m-darwin.so',
   'EXTENSION'),
  ('_codecs_kr',
   '/usr/local/Cellar/python/3.6.5/Frameworks/Python.framework/Versions/3.6/lib/python3.6/lib-dynload/_codecs_kr.cpython-36m-darwin.so',
   'EXTENSION'),
  ('_multibytecodec',
   '/usr/local/Cellar/python/3.6.5/Frameworks/Python.framework/Versions/3.6/lib/python3.6/lib-dynload/_multibytecodec.cpython-36m-darwin.so',
   'EXTENSION'),
  ('_heapq',
   '/usr/local/Cellar/python/3.6.5/Frameworks/Python.framework/Versions/3.6/lib/python3.6/lib-dynload/_heapq.cpython-36m-darwin.so',
   'EXTENSION'),
  ('_opcode',
   '/usr/local/Cellar/python/3.6.5/Frameworks/Python.framework/Versions/3.6/lib/python3.6/lib-dynload/_opcode.cpython-36m-darwin.so',
   'EXTENSION'),
  ('readline',
   '/usr/local/Cellar/python/3.6.5/Frameworks/Python.framework/Versions/3.6/lib/python3.6/lib-dynload/readline.cpython-36m-darwin.so',
   'EXTENSION'),
  ('pyexpat',
   '/usr/local/Cellar/python/3.6.5/Frameworks/Python.framework/Versions/3.6/lib/python3.6/lib-dynload/pyexpat.cpython-36m-darwin.so',
   'EXTENSION'),
  ('_scproxy',
   '/usr/local/Cellar/python/3.6.5/Frameworks/Python.framework/Versions/3.6/lib/python3.6/lib-dynload/_scproxy.cpython-36m-darwin.so',
   'EXTENSION'),
  ('termios',
   '/usr/local/Cellar/python/3.6.5/Frameworks/Python.framework/Versions/3.6/lib/python3.6/lib-dynload/termios.cpython-36m-darwin.so',
   'EXTENSION'),
  ('_sha1',
   '/usr/local/Cellar/python/3.6.5/Frameworks/Python.framework/Versions/3.6/lib/python3.6/lib-dynload/_sha1.cpython-36m-darwin.so',
   'EXTENSION'),
  ('_md5',
   '/usr/local/Cellar/python/3.6.5/Frameworks/Python.framework/Versions/3.6/lib/python3.6/lib-dynload/_md5.cpython-36m-darwin.so',
   'EXTENSION'),
  ('_sha256',
   '/usr/local/Cellar/python/3.6.5/Frameworks/Python.framework/Versions/3.6/lib/python3.6/lib-dynload/_sha256.cpython-36m-darwin.so',
   'EXTENSION'),
  ('_sha512',
   '/usr/local/Cellar/python/3.6.5/Frameworks/Python.framework/Versions/3.6/lib/python3.6/lib-dynload/_sha512.cpython-36m-darwin.so',
   'EXTENSION'),
  ('_blake2',
   '/usr/local/Cellar/python/3.6.5/Frameworks/Python.framework/Versions/3.6/lib/python3.6/lib-dynload/_blake2.cpython-36m-darwin.so',
   'EXTENSION'),
  ('_sha3',
   '/usr/local/Cellar/python/3.6.5/Frameworks/Python.framework/Versions/3.6/lib/python3.6/lib-dynload/_sha3.cpython-36m-darwin.so',
   'EXTENSION'),
  ('_hashlib',
   '/usr/local/Cellar/python/3.6.5/Frameworks/Python.framework/Versions/3.6/lib/python3.6/lib-dynload/_hashlib.cpython-36m-darwin.so',
   'EXTENSION'),
  ('_bisect',
   '/usr/local/Cellar/python/3.6.5/Frameworks/Python.framework/Versions/3.6/lib/python3.6/lib-dynload/_bisect.cpython-36m-darwin.so',
   'EXTENSION'),
  ('_random',
   '/usr/local/Cellar/python/3.6.5/Frameworks/Python.framework/Versions/3.6/lib/python3.6/lib-dynload/_random.cpython-36m-darwin.so',
   'EXTENSION'),
  ('select',
   '/usr/local/Cellar/python/3.6.5/Frameworks/Python.framework/Versions/3.6/lib/python3.6/lib-dynload/select.cpython-36m-darwin.so',
   'EXTENSION'),
  ('zlib',
   '/usr/local/Cellar/python/3.6.5/Frameworks/Python.framework/Versions/3.6/lib/python3.6/lib-dynload/zlib.cpython-36m-darwin.so',
   'EXTENSION'),
  ('_bz2',
   '/usr/local/Cellar/python/3.6.5/Frameworks/Python.framework/Versions/3.6/lib/python3.6/lib-dynload/_bz2.cpython-36m-darwin.so',
   'EXTENSION'),
  ('_lzma',
   '/usr/local/Cellar/python/3.6.5/Frameworks/Python.framework/Versions/3.6/lib/python3.6/lib-dynload/_lzma.cpython-36m-darwin.so',
   'EXTENSION'),
  ('grp',
   '/usr/local/Cellar/python/3.6.5/Frameworks/Python.framework/Versions/3.6/lib/python3.6/lib-dynload/grp.cpython-36m-darwin.so',
   'EXTENSION'),
  ('binascii',
   '/usr/local/Cellar/python/3.6.5/Frameworks/Python.framework/Versions/3.6/lib/python3.6/lib-dynload/binascii.cpython-36m-darwin.so',
   'EXTENSION'),
  ('_socket',
   '/usr/local/Cellar/python/3.6.5/Frameworks/Python.framework/Versions/3.6/lib/python3.6/lib-dynload/_socket.cpython-36m-darwin.so',
   'EXTENSION'),
  ('math',
   '/usr/local/Cellar/python/3.6.5/Frameworks/Python.framework/Versions/3.6/lib/python3.6/lib-dynload/math.cpython-36m-darwin.so',
   'EXTENSION'),
  ('_struct',
   '/usr/local/Cellar/python/3.6.5/Frameworks/Python.framework/Versions/3.6/lib/python3.6/lib-dynload/_struct.cpython-36m-darwin.so',
   'EXTENSION'),
  ('_sphinxbase',
   '/usr/local/lib/python3.6/site-packages/sphinxbase/_sphinxbase.cpython-36m-darwin.so',
   'EXTENSION'),
  ('_ad_openal',
   '/usr/local/lib/python3.6/site-packages/sphinxbase/_ad_openal.cpython-36m-darwin.so',
   'EXTENSION'),
  ('_pocketsphinx',
   '/usr/local/lib/python3.6/site-packages/pocketsphinx/_pocketsphinx.cpython-36m-darwin.so',
   'EXTENSION'),
  ('_portaudio',
   '/usr/local/lib/python3.6/site-packages/_portaudio.cpython-36m-darwin.so',
   'EXTENSION'),
  ('_ctypes',
   '/usr/local/Cellar/python/3.6.5/Frameworks/Python.framework/Versions/3.6/lib/python3.6/lib-dynload/_ctypes.cpython-36m-darwin.so',
   'EXTENSION'),
  ('_json',
   '/usr/local/Cellar/python/3.6.5/Frameworks/Python.framework/Versions/3.6/lib/python3.6/lib-dynload/_json.cpython-36m-darwin.so',
   'EXTENSION'),
  ('audioop',
   '/usr/local/Cellar/python/3.6.5/Frameworks/Python.framework/Versions/3.6/lib/python3.6/lib-dynload/audioop.cpython-36m-darwin.so',
   'EXTENSION'),
  ('libssl.1.0.0.dylib',
   '/usr/local/opt/openssl/lib/libssl.1.0.0.dylib',
   'BINARY'),
  ('libcrypto.1.0.0.dylib',
   '/usr/local/opt/openssl/lib/libcrypto.1.0.0.dylib',
   'BINARY'),
  ('libreadline.7.dylib',
   '/usr/local/opt/readline/lib/libreadline.7.dylib',
   'BINARY'),
  ('liblzma.5.dylib', '/usr/local/opt/xz/lib/liblzma.5.dylib', 'BINARY'),
  ('libportaudio.2.dylib',
   '/usr/local/opt/portaudio/lib/libportaudio.2.dylib',
   'BINARY')],
 [],
 [],
 [('base_library.zip',
   '/Users/jaxonkneipp/Documents/git_projects/major_project/project/ide/py/build/translation/base_library.zip',
   'DATA'),
  ('speech_recognition/pocketsphinx-data/en-US/acoustic-model/transition_matrices',
   '/usr/local/lib/python3.6/site-packages/speech_recognition/pocketsphinx-data/en-US/acoustic-model/transition_matrices',
   'DATA'),
  ('include/python3.6m/pyconfig.h',
   '/usr/local/Cellar/python/3.6.5/Frameworks/Python.framework/Versions/3.6/include/python3.6m/pyconfig.h',
   'DATA'),
  ('speech_recognition/flac-linux-x86_64',
   '/usr/local/lib/python3.6/site-packages/speech_recognition/flac-linux-x86_64',
   'DATA'),
  ('speech_recognition/pocketsphinx-data/en-US/acoustic-model/means',
   '/usr/local/lib/python3.6/site-packages/speech_recognition/pocketsphinx-data/en-US/acoustic-model/means',
   'DATA'),
  ('speech_recognition/flac-linux-x86',
   '/usr/local/lib/python3.6/site-packages/speech_recognition/flac-linux-x86',
   'DATA'),
  ('speech_recognition/pocketsphinx-data/en-US/LICENSE.txt',
   '/usr/local/lib/python3.6/site-packages/speech_recognition/pocketsphinx-data/en-US/LICENSE.txt',
   'DATA'),
  ('speech_recognition/pocketsphinx-data/en-US/acoustic-model/sendump',
   '/usr/local/lib/python3.6/site-packages/speech_recognition/pocketsphinx-data/en-US/acoustic-model/sendump',
   'DATA'),
  ('speech_recognition/pocketsphinx-data/en-US/acoustic-model/mdef',
   '/usr/local/lib/python3.6/site-packages/speech_recognition/pocketsphinx-data/en-US/acoustic-model/mdef',
   'DATA'),
  ('speech_recognition/pocketsphinx-data/en-US/acoustic-model/README',
   '/usr/local/lib/python3.6/site-packages/speech_recognition/pocketsphinx-data/en-US/acoustic-model/README',
   'DATA'),
  ('speech_recognition/pocketsphinx-data/en-US/pronounciation-dictionary.dict',
   '/usr/local/lib/python3.6/site-packages/speech_recognition/pocketsphinx-data/en-US/pronounciation-dictionary.dict',
   'DATA'),
  ('speech_recognition/pocketsphinx-data/en-US/acoustic-model/variances',
   '/usr/local/lib/python3.6/site-packages/speech_recognition/pocketsphinx-data/en-US/acoustic-model/variances',
   'DATA'),
  ('speech_recognition/pocketsphinx-data/en-US/acoustic-model/noisedict',
   '/usr/local/lib/python3.6/site-packages/speech_recognition/pocketsphinx-data/en-US/acoustic-model/noisedict',
   'DATA'),
  ('speech_recognition/flac-win32.exe',
   '/usr/local/lib/python3.6/site-packages/speech_recognition/flac-win32.exe',
   'DATA'),
  ('lib/python3.6/config-3.6m-darwin/Makefile',
   '/usr/local/Cellar/python/3.6.5/Frameworks/Python.framework/Versions/3.6/lib/python3.6/config-3.6m-darwin/Makefile',
   'DATA'),
  ('speech_recognition/pocketsphinx-data/en-US/acoustic-model/feat.params',
   '/usr/local/lib/python3.6/site-packages/speech_recognition/pocketsphinx-data/en-US/acoustic-model/feat.params',
   'DATA'),
  ('speech_recognition/pocketsphinx-data/en-US/language-model.lm.bin',
   '/usr/local/lib/python3.6/site-packages/speech_recognition/pocketsphinx-data/en-US/language-model.lm.bin',
   'DATA'),
  ('speech_recognition/flac-mac',
   '/usr/local/lib/python3.6/site-packages/speech_recognition/flac-mac',
   'DATA')],
 [])
