('/Users/jaxonkneipp/Documents/git_projects/major_project/project/ide/py/build/translation/out00-PKG.pkg',
 {'BINARY': 1,
  'DATA': 1,
  'EXECUTABLE': 1,
  'EXTENSION': 1,
  'PYMODULE': 1,
  'PYSOURCE': 1,
  'PYZ': 0},
 [('out00-PYZ.pyz',
   '/Users/jaxonkneipp/Documents/git_projects/major_project/project/ide/py/build/translation/out00-PYZ.pyz',
   'PYZ'),
  ('_struct',
   '/usr/local/Cellar/python/3.6.5/Frameworks/Python.framework/Versions/3.6/lib/python3.6/lib-dynload/_struct.cpython-36m-darwin.so',
   'EXTENSION'),
  ('zlib',
   '/usr/local/Cellar/python/3.6.5/Frameworks/Python.framework/Versions/3.6/lib/python3.6/lib-dynload/zlib.cpython-36m-darwin.so',
   'EXTENSION'),
  ('struct',
   '/usr/local/Cellar/python/3.6.5/Frameworks/Python.framework/Versions/3.6/lib/python3.6/struct.pyo',
   'PYMODULE'),
  ('pyimod01_os_path',
   '/usr/local/lib/python3.6/site-packages/PyInstaller/loader/pyimod01_os_path.pyc',
   'PYMODULE'),
  ('pyimod02_archive',
   '/usr/local/lib/python3.6/site-packages/PyInstaller/loader/pyimod02_archive.pyc',
   'PYMODULE'),
  ('pyimod03_importers',
   '/usr/local/lib/python3.6/site-packages/PyInstaller/loader/pyimod03_importers.pyc',
   'PYMODULE'),
  ('pyiboot01_bootstrap',
   '/usr/local/lib/python3.6/site-packages/PyInstaller/loader/pyiboot01_bootstrap.py',
   'PYSOURCE'),
  ('translation',
   '/Users/jaxonkneipp/Documents/git_projects/major_project/project/ide/py/translation.py',
   'PYSOURCE')],
 True,
 False,
 False)
