([('translation',
   '/Users/jaxonkneipp/Documents/git_projects/major_project/project/ide/py/build/translation/translation',
   'EXECUTABLE'),
  ('_struct.so',
   '/usr/local/Cellar/python/3.6.5/Frameworks/Python.framework/Versions/3.6/lib/python3.6/lib-dynload/_struct.cpython-36m-darwin.so',
   'EXTENSION'),
  ('zlib.so',
   '/usr/local/Cellar/python/3.6.5/Frameworks/Python.framework/Versions/3.6/lib/python3.6/lib-dynload/zlib.cpython-36m-darwin.so',
   'EXTENSION'),
  ('Python',
   '/usr/local/Cellar/python/3.6.5/Frameworks/Python.framework/Versions/3.6/Python',
   'BINARY'),
  ('resource',
   '/usr/local/Cellar/python/3.6.5/Frameworks/Python.framework/Versions/3.6/lib/python3.6/lib-dynload/resource.cpython-36m-darwin.so',
   'EXTENSION'),
  ('_pickle',
   '/usr/local/Cellar/python/3.6.5/Frameworks/Python.framework/Versions/3.6/lib/python3.6/lib-dynload/_pickle.cpython-36m-darwin.so',
   'EXTENSION'),
  ('_datetime',
   '/usr/local/Cellar/python/3.6.5/Frameworks/Python.framework/Versions/3.6/lib/python3.6/lib-dynload/_datetime.cpython-36m-darwin.so',
   'EXTENSION'),
  ('_posixsubprocess',
   '/usr/local/Cellar/python/3.6.5/Frameworks/Python.framework/Versions/3.6/lib/python3.6/lib-dynload/_posixsubprocess.cpython-36m-darwin.so',
   'EXTENSION'),
  ('_ssl',
   '/usr/local/Cellar/python/3.6.5/Frameworks/Python.framework/Versions/3.6/lib/python3.6/lib-dynload/_ssl.cpython-36m-darwin.so',
   'EXTENSION'),
  ('_codecs_cn',
   '/usr/local/Cellar/python/3.6.5/Frameworks/Python.framework/Versions/3.6/lib/python3.6/lib-dynload/_codecs_cn.cpython-36m-darwin.so',
   'EXTENSION'),
  ('_codecs_tw',
   '/usr/local/Cellar/python/3.6.5/Frameworks/Python.framework/Versions/3.6/lib/python3.6/lib-dynload/_codecs_tw.cpython-36m-darwin.so',
   'EXTENSION'),
  ('_codecs_hk',
   '/usr/local/Cellar/python/3.6.5/Frameworks/Python.framework/Versions/3.6/lib/python3.6/lib-dynload/_codecs_hk.cpython-36m-darwin.so',
   'EXTENSION'),
  ('_codecs_jp',
   '/usr/local/Cellar/python/3.6.5/Frameworks/Python.framework/Versions/3.6/lib/python3.6/lib-dynload/_codecs_jp.cpython-36m-darwin.so',
   'EXTENSION'),
  ('_codecs_iso2022',
   '/usr/local/Cellar/python/3.6.5/Frameworks/Python.framework/Versions/3.6/lib/python3.6/lib-dynload/_codecs_iso2022.cpython-36m-darwin.so',
   'EXTENSION'),
  ('unicodedata',
   '/usr/local/Cellar/python/3.6.5/Frameworks/Python.framework/Versions/3.6/lib/python3.6/lib-dynload/unicodedata.cpython-36m-darwin.so',
   'EXTENSION'),
  ('_codecs_kr',
   '/usr/local/Cellar/python/3.6.5/Frameworks/Python.framework/Versions/3.6/lib/python3.6/lib-dynload/_codecs_kr.cpython-36m-darwin.so',
   'EXTENSION'),
  ('_multibytecodec',
   '/usr/local/Cellar/python/3.6.5/Frameworks/Python.framework/Versions/3.6/lib/python3.6/lib-dynload/_multibytecodec.cpython-36m-darwin.so',
   'EXTENSION'),
  ('_heapq',
   '/usr/local/Cellar/python/3.6.5/Frameworks/Python.framework/Versions/3.6/lib/python3.6/lib-dynload/_heapq.cpython-36m-darwin.so',
   'EXTENSION'),
  ('_opcode',
   '/usr/local/Cellar/python/3.6.5/Frameworks/Python.framework/Versions/3.6/lib/python3.6/lib-dynload/_opcode.cpython-36m-darwin.so',
   'EXTENSION'),
  ('readline',
   '/usr/local/Cellar/python/3.6.5/Frameworks/Python.framework/Versions/3.6/lib/python3.6/lib-dynload/readline.cpython-36m-darwin.so',
   'EXTENSION'),
  ('pyexpat',
   '/usr/local/Cellar/python/3.6.5/Frameworks/Python.framework/Versions/3.6/lib/python3.6/lib-dynload/pyexpat.cpython-36m-darwin.so',
   'EXTENSION'),
  ('_scproxy',
   '/usr/local/Cellar/python/3.6.5/Frameworks/Python.framework/Versions/3.6/lib/python3.6/lib-dynload/_scproxy.cpython-36m-darwin.so',
   'EXTENSION'),
  ('termios',
   '/usr/local/Cellar/python/3.6.5/Frameworks/Python.framework/Versions/3.6/lib/python3.6/lib-dynload/termios.cpython-36m-darwin.so',
   'EXTENSION'),
  ('_sha1',
   '/usr/local/Cellar/python/3.6.5/Frameworks/Python.framework/Versions/3.6/lib/python3.6/lib-dynload/_sha1.cpython-36m-darwin.so',
   'EXTENSION'),
  ('_md5',
   '/usr/local/Cellar/python/3.6.5/Frameworks/Python.framework/Versions/3.6/lib/python3.6/lib-dynload/_md5.cpython-36m-darwin.so',
   'EXTENSION'),
  ('_sha256',
   '/usr/local/Cellar/python/3.6.5/Frameworks/Python.framework/Versions/3.6/lib/python3.6/lib-dynload/_sha256.cpython-36m-darwin.so',
   'EXTENSION'),
  ('_sha512',
   '/usr/local/Cellar/python/3.6.5/Frameworks/Python.framework/Versions/3.6/lib/python3.6/lib-dynload/_sha512.cpython-36m-darwin.so',
   'EXTENSION'),
  ('_blake2',
   '/usr/local/Cellar/python/3.6.5/Frameworks/Python.framework/Versions/3.6/lib/python3.6/lib-dynload/_blake2.cpython-36m-darwin.so',
   'EXTENSION'),
  ('_sha3',
   '/usr/local/Cellar/python/3.6.5/Frameworks/Python.framework/Versions/3.6/lib/python3.6/lib-dynload/_sha3.cpython-36m-darwin.so',
   'EXTENSION'),
  ('_hashlib',
   '/usr/local/Cellar/python/3.6.5/Frameworks/Python.framework/Versions/3.6/lib/python3.6/lib-dynload/_hashlib.cpython-36m-darwin.so',
   'EXTENSION'),
  ('_bisect',
   '/usr/local/Cellar/python/3.6.5/Frameworks/Python.framework/Versions/3.6/lib/python3.6/lib-dynload/_bisect.cpython-36m-darwin.so',
   'EXTENSION'),
  ('_random',
   '/usr/local/Cellar/python/3.6.5/Frameworks/Python.framework/Versions/3.6/lib/python3.6/lib-dynload/_random.cpython-36m-darwin.so',
   'EXTENSION'),
  ('select',
   '/usr/local/Cellar/python/3.6.5/Frameworks/Python.framework/Versions/3.6/lib/python3.6/lib-dynload/select.cpython-36m-darwin.so',
   'EXTENSION'),
  ('zlib',
   '/usr/local/Cellar/python/3.6.5/Frameworks/Python.framework/Versions/3.6/lib/python3.6/lib-dynload/zlib.cpython-36m-darwin.so',
   'EXTENSION'),
  ('_bz2',
   '/usr/local/Cellar/python/3.6.5/Frameworks/Python.framework/Versions/3.6/lib/python3.6/lib-dynload/_bz2.cpython-36m-darwin.so',
   'EXTENSION'),
  ('_lzma',
   '/usr/local/Cellar/python/3.6.5/Frameworks/Python.framework/Versions/3.6/lib/python3.6/lib-dynload/_lzma.cpython-36m-darwin.so',
   'EXTENSION'),
  ('grp',
   '/usr/local/Cellar/python/3.6.5/Frameworks/Python.framework/Versions/3.6/lib/python3.6/lib-dynload/grp.cpython-36m-darwin.so',
   'EXTENSION'),
  ('binascii',
   '/usr/local/Cellar/python/3.6.5/Frameworks/Python.framework/Versions/3.6/lib/python3.6/lib-dynload/binascii.cpython-36m-darwin.so',
   'EXTENSION'),
  ('_socket',
   '/usr/local/Cellar/python/3.6.5/Frameworks/Python.framework/Versions/3.6/lib/python3.6/lib-dynload/_socket.cpython-36m-darwin.so',
   'EXTENSION'),
  ('math',
   '/usr/local/Cellar/python/3.6.5/Frameworks/Python.framework/Versions/3.6/lib/python3.6/lib-dynload/math.cpython-36m-darwin.so',
   'EXTENSION'),
  ('_struct',
   '/usr/local/Cellar/python/3.6.5/Frameworks/Python.framework/Versions/3.6/lib/python3.6/lib-dynload/_struct.cpython-36m-darwin.so',
   'EXTENSION'),
  ('_sphinxbase',
   '/usr/local/lib/python3.6/site-packages/sphinxbase/_sphinxbase.cpython-36m-darwin.so',
   'EXTENSION'),
  ('_ad_openal',
   '/usr/local/lib/python3.6/site-packages/sphinxbase/_ad_openal.cpython-36m-darwin.so',
   'EXTENSION'),
  ('_pocketsphinx',
   '/usr/local/lib/python3.6/site-packages/pocketsphinx/_pocketsphinx.cpython-36m-darwin.so',
   'EXTENSION'),
  ('_portaudio',
   '/usr/local/lib/python3.6/site-packages/_portaudio.cpython-36m-darwin.so',
   'EXTENSION'),
  ('_ctypes',
   '/usr/local/Cellar/python/3.6.5/Frameworks/Python.framework/Versions/3.6/lib/python3.6/lib-dynload/_ctypes.cpython-36m-darwin.so',
   'EXTENSION'),
  ('_json',
   '/usr/local/Cellar/python/3.6.5/Frameworks/Python.framework/Versions/3.6/lib/python3.6/lib-dynload/_json.cpython-36m-darwin.so',
   'EXTENSION'),
  ('audioop',
   '/usr/local/Cellar/python/3.6.5/Frameworks/Python.framework/Versions/3.6/lib/python3.6/lib-dynload/audioop.cpython-36m-darwin.so',
   'EXTENSION'),
  ('libssl.1.0.0.dylib',
   '/usr/local/opt/openssl/lib/libssl.1.0.0.dylib',
   'BINARY'),
  ('libcrypto.1.0.0.dylib',
   '/usr/local/opt/openssl/lib/libcrypto.1.0.0.dylib',
   'BINARY'),
  ('libreadline.7.dylib',
   '/usr/local/opt/readline/lib/libreadline.7.dylib',
   'BINARY'),
  ('liblzma.5.dylib', '/usr/local/opt/xz/lib/liblzma.5.dylib', 'BINARY'),
  ('libportaudio.2.dylib',
   '/usr/local/opt/portaudio/lib/libportaudio.2.dylib',
   'BINARY'),
  ('base_library.zip',
   '/Users/jaxonkneipp/Documents/git_projects/major_project/project/ide/py/build/translation/base_library.zip',
   'DATA'),
  ('speech_recognition/pocketsphinx-data/en-US/acoustic-model/transition_matrices',
   '/usr/local/lib/python3.6/site-packages/speech_recognition/pocketsphinx-data/en-US/acoustic-model/transition_matrices',
   'DATA'),
  ('include/python3.6m/pyconfig.h',
   '/usr/local/Cellar/python/3.6.5/Frameworks/Python.framework/Versions/3.6/include/python3.6m/pyconfig.h',
   'DATA'),
  ('speech_recognition/flac-linux-x86_64',
   '/usr/local/lib/python3.6/site-packages/speech_recognition/flac-linux-x86_64',
   'DATA'),
  ('speech_recognition/pocketsphinx-data/en-US/acoustic-model/means',
   '/usr/local/lib/python3.6/site-packages/speech_recognition/pocketsphinx-data/en-US/acoustic-model/means',
   'DATA'),
  ('speech_recognition/flac-linux-x86',
   '/usr/local/lib/python3.6/site-packages/speech_recognition/flac-linux-x86',
   'DATA'),
  ('speech_recognition/pocketsphinx-data/en-US/LICENSE.txt',
   '/usr/local/lib/python3.6/site-packages/speech_recognition/pocketsphinx-data/en-US/LICENSE.txt',
   'DATA'),
  ('speech_recognition/pocketsphinx-data/en-US/acoustic-model/sendump',
   '/usr/local/lib/python3.6/site-packages/speech_recognition/pocketsphinx-data/en-US/acoustic-model/sendump',
   'DATA'),
  ('speech_recognition/pocketsphinx-data/en-US/acoustic-model/mdef',
   '/usr/local/lib/python3.6/site-packages/speech_recognition/pocketsphinx-data/en-US/acoustic-model/mdef',
   'DATA'),
  ('speech_recognition/pocketsphinx-data/en-US/acoustic-model/README',
   '/usr/local/lib/python3.6/site-packages/speech_recognition/pocketsphinx-data/en-US/acoustic-model/README',
   'DATA'),
  ('speech_recognition/pocketsphinx-data/en-US/pronounciation-dictionary.dict',
   '/usr/local/lib/python3.6/site-packages/speech_recognition/pocketsphinx-data/en-US/pronounciation-dictionary.dict',
   'DATA'),
  ('speech_recognition/pocketsphinx-data/en-US/acoustic-model/variances',
   '/usr/local/lib/python3.6/site-packages/speech_recognition/pocketsphinx-data/en-US/acoustic-model/variances',
   'DATA'),
  ('speech_recognition/pocketsphinx-data/en-US/acoustic-model/noisedict',
   '/usr/local/lib/python3.6/site-packages/speech_recognition/pocketsphinx-data/en-US/acoustic-model/noisedict',
   'DATA'),
  ('speech_recognition/flac-win32.exe',
   '/usr/local/lib/python3.6/site-packages/speech_recognition/flac-win32.exe',
   'DATA'),
  ('lib/python3.6/config-3.6m-darwin/Makefile',
   '/usr/local/Cellar/python/3.6.5/Frameworks/Python.framework/Versions/3.6/lib/python3.6/config-3.6m-darwin/Makefile',
   'DATA'),
  ('speech_recognition/pocketsphinx-data/en-US/acoustic-model/feat.params',
   '/usr/local/lib/python3.6/site-packages/speech_recognition/pocketsphinx-data/en-US/acoustic-model/feat.params',
   'DATA'),
  ('speech_recognition/pocketsphinx-data/en-US/language-model.lm.bin',
   '/usr/local/lib/python3.6/site-packages/speech_recognition/pocketsphinx-data/en-US/language-model.lm.bin',
   'DATA'),
  ('speech_recognition/flac-mac',
   '/usr/local/lib/python3.6/site-packages/speech_recognition/flac-mac',
   'DATA')],)
